{
	"sensors" : [
		{
			"id" : "s1",
			"streams" : [
				{
					"id" : "s1-s1",
					"plugin" : {
						"moduleName" : "NewRandPlugin",
						"modulePath" : "./../../Plugins" ,
						"params" : {
							"streamID" : "s1-s1",
							"min" : 0,
							"max" : 100,
							"period" : 1000
						},
						"subModules" : []
					}
				}
			]
		},
		{
			"id" : "s2",
			"streams" : [
				{
					"id" : "s2-s1",
					"plugin" : {
						"moduleName" : "NewRandPlugin",
						"modulePath" : "./../../Plugins",
						"params" : {
							"streamID" : "s2-s1",
							"min" : 400,
							"max" : 500,
							"period" : 2000
						},
						"subModules" : []
					}
				},
				{
					"id" : "s2-s2",
					"plugin" : {
						"moduleName" : "NewRandPlugin",
						"modulePath" : "./../../Plugins",
						"params" : {
							"streamID" : "s2-s2",
							"min" : -10,
							"max" : 0,
							"period" : 5000
						},
						"subModules" : []
					}
				}
			]
		}
	],
	"http" : {
		"moduleName" : "ExpressHTTPServer",
		"modulePath" : "./../Servers",
		"params" : {
			"host" : "localhost",
			"port" : "8500",
			"version" : "1.0"
		},
		"subModules" : [
			{
				"moduleName" : "RootRouter",
				"modulePath" : "./../../Routers",
				"params" : {
					"route" : "/",
					"verb" : "GET"
				},
				"subModules" : [
					{
						"moduleName" : "JSONView",
						"modulePath" : "./../../Views",
						"params" : {},
						"subModules" : {}
					}
				]
			},
			{
				"moduleName" : "NestedRouter",
				"modulePath" : "./../../Routers",
				"params" : {
					"route" : "/:entityType\\(:id\\)/:prop",
					"verb" : "GET"
				},
				"subModules" : [
					{
						"moduleName" : "JSONView",
						"modulePath" : "./../../Views",
						"params" : {},
						"subModules" : {}
					}
				]
			},
			{
				"moduleName" : "NestedRouter",
				"modulePath" : "./../../Routers",
				"params" : {
					"route" : "/:entityType\\(:id\\)",
					"verb" : "GET"
				},
				"subModules" : [
					{
						"moduleName" : "JSONView",
						"modulePath" : "./../../Views",
						"params" : {},
						"subModules" : {}
					}
				]
			},
			{
				"moduleName" : "NestedRouter",
				"modulePath" : "./../../Routers",
				"params" : {
					"route" : "/:entityType",
					"verb" : "GET"
				},
				"subModules" : [
					{
						"moduleName" : "JSONView",
						"modulePath" : "./../../Views",
						"params" : {},
						"subModules" : {}
					}
				]
			}
		]
	},
	"ws" : [
	]
}